Twitter Conversation Networks and Analysis • voson.tcn
…
Generate Networks

Two types of networks can be generated from the tweets collected. An activity network in which tweets are the nodes and an actor network where Twitter users are the nodes. Edges are the relationships between nodes, in both networks these are either a reply or a quote, signifying for example that a tweet is a reply-to another tweet or that a user has replied to another user.

Create an activity network

The activity network has tweet metadata such as tweet metrics and author usernames as node attributes.

activity_net <- tcn_network(tweets, "activity")

# activity nodes dataframe structure
print(activity_net$nodes, n = 3)

# # A tibble: 148 x 11
#   tweet_id  user_id  source created_at text    public_metrics.~ public_metrics.~
#   <chr>     <chr>    <chr>  <chr>      <chr>              <int>            <int>
# 1 13726476~ 9427940~ Twitt~ 2021-03-1~ @Warcr~                0                0
# 2 13726461~ 1609030~ Twitt~ 2021-03-1~ @Patri~                0                0
# 3 13726452~ 1190870~ Twitt~ 2021-03-1~ @Warcr~                0                0
# # ... with 145 more rows, and 4 more variables:
# #   public_metrics.like_count <int>, public_metrics.quote_count <int>,
# #   profile.name <chr>, profile.username <chr>

# activity edges dataframe structure
print(activity_net$edges, n = 3)

# # A tibble: 122 x 3
#   from                to                  type      
#   <chr>               <chr>               <chr>     
# 1 1372636834971455494 1372630068162297860 replied_to
# 2 1372635200748937223 1372615159311699970 replied_to
# 3 1372634777275265029 1372615159311699970 replied_to
# # ... with 119 more rows

Create an actor network

The actor network has additional user profile metadata as node attributes.

actor_net <- tcn_network(tweets, "actor")

# actor nodes dataframe structure
print(actor_net$nodes, n = 3)

# # A tibble: 105 x 13
#   user_id source profile.name profile.profile~ profile.location profile.username
#   <chr>   <chr>  <chr>        <chr>            <chr>            <chr>           
# 1 275993~ Twitt~ "\U0001d43f~ https://pbs.twi~ England          Stab~       
# 2 133101~ Twitt~ "Andr ~      https://pbs.twi~ NA               virg~ 
# 3 240160~ Twitt~ "Sebast ~    https://pbs.twi~ NA               Nord~     
# # ... with 102 more rows, and 7 more variables: profile.created_at <chr>,
# #   profile.description <chr>, profile.verified <lgl>,
# #   profile.public_metrics.followers_count <int>,
# #   profile.public_metrics.following_count <int>,
# #   profile.public_metrics.tweet_count <int>,
# #   profile.public_metrics.listed_count <int>

# actor edges dataframe structure
print(actor_net$edges, n = 3)

# # A tibble: 124 x 6
#   from       to     type  tweet_id    created_at     text                       
#   <chr>      <chr>  <chr> <chr>       <chr>          <chr>                      
# 1 2759935913 24599~ reply 1372636834~ 2021-03-18T19~ "@Limp ~   @Warcraft @MSF_~
# 2 133101119~ 61033~ reply 1372635200~ 2021-03-18T19~ "@Warcraft @MSF_USA Coming~
# 3 2401609580 61033~ reply 1372634777~ 2021-03-18T19~ "@Warcraft @MSF_USA When d~
# # ... with 121 more rows
…
